module gitlab.com/ochienged/time-capsule

go 1.14

require (
	github.com/imdario/mergo v0.3.9 // indirect
	golang.org/x/oauth2 v0.0.0-20200107190931-bf48bf16ab8d // indirect
	golang.org/x/time v0.0.0-20200630173020-3af7569d3a1e // indirect
	k8s.io/api v0.17.3
	k8s.io/apimachinery v0.17.3
	k8s.io/client-go v12.0.0+incompatible
	k8s.io/utils v0.0.0-20200619165400-6e3d28b6ed19 // indirect
)
